The simTool package: Facilitate simulations
…
eval_tibbles(
  expandGrid(fun = "regData", n = 5L, SD = 1:2),
  expandGrid(proc = "lm", formula = c("y~x", "y~I(x^2)")),
  post_analyze = purrr::compose(presever_rownames, coef, summary),
  replications = 3
)

Warning in expandGrid(fun = "regData", n = 5L, SD = 1:2): The function expandGrid() is deprecated.
Please use expand_tibble() instead.

Warning in expandGrid(proc = "lm", formula = c("y~x", "y~I(x^2)")): The function expandGrid() is
deprecated. Please use expand_tibble() instead.

# A tibble: 24 x 11
   fun         n    SD replications proc  formula  Estimate `Std. Error` `t value` `Pr(>|t|)` term 
   <chr>   <int> <int>        <int> <chr> <chr>       <dbl>        <dbl>     <dbl>      <dbl> <chr>
 1 regData     5     1            1 lm    y~x          9.91        0.670    14.8     0.000671 (Int
 2 regData     5     1            1 lm    y~x          2.80        1.09      2.56    0.0831   x    
 3 regData     5     1            1 lm    y~I(x^2)    10.3         0.577    17.9     0.000381 (Int
 4 regData     5     1            1 lm    y~I(x^2)     2.63        1.10      2.40    0.0961   I(x^
 5 regData     5     1            2 lm    y~x          9.32        0.537    17.3     0.000419 (Int
 6 regData     5     1            2 lm    y~x          2.11        0.878     2.40    0.0960   x    
 7 regData     5     1            2 lm    y~I(x^2)     9.78        0.590    16.6     0.000478 (Int
 8 regData     5     1            2 lm    y~I(x^2)     1.56        1.12      1.39    0.259    I(x^
 9 regData     5     1            3 lm    y~x          9.64        1.16      8.28    0.00369  (Int
10 regData     5     1            3 lm    y~x          1.83        1.90      0.965   0.406    x    
# ... with 14 more rows
…
pg <- expand_tibble(proc = c("mean", "median"))
pg

# A tibble: 2 x 1
  proc  
  <chr> 
1 mean  
2 median

Finally, we conduct the simulation and visualize the results

et <- eval_tibbles(dg, pg, replications = 10^5, ncpus = 2)
et

# A tibble: 800,000 x 7
   fun    mean     n  rate replications proc   results
   <chr> <dbl> <int> <dbl>        <int> <chr>    <dbl>
 1 rnorm    1.    10    NA            1 mean     0.616
 2 rnorm    1.    10    NA            1 median   0.463
 3 rnorm    1.    10    NA            2 mean     0.884
 4 rnorm    1.    10    NA            2 median   0.796
 5 rnorm    1.    10    NA            3 mean     1.36 
 6 rnorm    1.    10    NA            3 median   1.08 
 7 rnorm    1.    10    NA            4 mean     0.355
 8 rnorm    1.    10    NA            4 median   0.347
 9 rnorm    1.    10    NA            5 mean     0.514
10 rnorm    1.    10    NA            5 median   0.414
# ... with 799,990 more rows
…
Note, that the structure of the objects returned are quite different which addressed by our function post_analyze. The variables type and aspect that are created by post_analyze are to distinguish the different confidence intervals. Since these variables are part of the result objects eval_tibbles assumes that these variables are results. In order to summarize the results (calculating the mean) over all replications correctly we need to tell eval_tibbles that additional group variables are type and aspect:

et <- eval_tibbles(dg, pg,
  replications = 10^3, ncpus = 2,
  cluster_global_objects = "post_analyze",
  post_analyze = post_analyze,
  summary_fun = list(mean = mean),
  group_for_summary = c("aspect", "type")
)
et

# A tibble: 72 x 13
   fun       n  mean    sd   max  rate replications summary_fun proc  conf.level aspect type  value
   <chr> <int> <dbl> <dbl> <dbl> <dbl>        <int> <chr>       <chr>      <dbl> <chr>  <chr> <dbl>
 1 rnorm    10    3.  1.73    NA    NA            1 mean        t.te      0.900 ci_le t.te 1.94 
 2 rnorm    10    3.  1.73    NA    NA            1 mean        t.te      0.900 cover t.te 0.886
 3 rnorm    10    3.  1.73    NA    NA            1 mean        boot      0.900 ci_le boot 1.66 
 4 rnorm    10    3.  1.73    NA    NA            1 mean        boot      0.900 ci_le boot 1.68 
 5 rnorm    10    3.  1.73    NA    NA            1 mean        boot      0.900 ci_le boot 1.65 
 6 rnorm    10    3.  1.73    NA    NA            1 mean        boot      0.900 ci_le boot 1.66 
 7 rnorm    10    3.  1.73    NA    NA            1 mean        boot      0.900 ci_le boot 2.05 
 8 rnorm    10    3.  1.73    NA    NA            1 mean        boot      0.900 cover boot 0.837
 9 rnorm    10    3.  1.73    NA    NA            1 mean        boot      0.900 cover boot 0.836
10 rnorm    10    3.  1.73    NA    NA            1 mean        boot      0.900 cover boot 0.831
# ... with 62 more rows
…
